ISSS624 Geospatial Analytics - Take Home Exercise 2
…
Notice there would be duplicate geometry, meaning multiple ’BUS_STOP_N’s at same hexagon.

Code

bus_hex %>%
  group_by(geometry)%>%
  filter(row_number()>1)

Simple feature collection with 4309 features and 9 fields
Geometry type: POLYGON
Dimension:     XY
Bounding box:  xmin: 3970.122 ymin: 27348.13 xmax: 48595.12 ymax: 50297.8
Projected CRS: SVY21 / Singapore TM
# A tibble: 4,309 × 10
# Groups:   geometry [776]
      id     N BUS_STOP_N SUBZONE_N     SUBZONE_C PLN_AREA_N PLN_AREA_C REGION_N
 * <int> <int> <chr>      <chr>         <chr>     <chr>      <chr>      <chr>   
 1    46     2 26369      TUAS VIEW     TSSZ05    TUAS       TS         WEST RE…
 2    67     4 25719      TUAS VIEW     TSSZ05    TUAS       TS         WEST RE…
 3    67     4 25711      TUAS VIEW     TSSZ05    TUAS       TS         WEST RE…
 4    67     4 26389      TUAS VIEW     TSSZ05    TUAS       TS         WEST RE…
 5    88     4 25701      TUAS VIEW     TSSZ05    TUAS       TS         WEST RE…
 6    88     4 25709      TUAS VIEW     TSSZ05    TUAS       TS         WEST RE…
 7    88     4 26461      TUAS VIEW     TSSZ05    TUAS       TS         WEST RE…
 8    89     2 26289      TUAS PROMENA… TSSZ02    TUAS       TS         WEST RE…
 9   109     3 25631      TUAS VIEW     TSSZ05    TUAS       TS         WEST RE…
10   109     3 26419      TUAS VIEW     TSSZ05    TUAS       TS         WEST RE…
# ℹ 4,299 more rows
# ℹ 2 more variables: REGION_C <chr>, geometry <POLYGON [m]>
…
