ISSS624 Geospatial Analytics - Hands on Excercise 3
…
Before continue, it is a good practice for us to check for duplicating records.

Code

od_data %>%
  group_by_all() %>%
  filter(n()>1) %>%
  ungroup()

# A tibble: 1,186 × 4
   ORIGIN_BS DESTIN_BS TRIPS ORIGIN_SZ
   <chr>     <fct>     <dbl> <chr>    
 1 11009     01341         1 QTSZ01   
 2 11009     01341         1 QTSZ01   
 3 11009     01411         4 QTSZ01   
 4 11009     01411         4 QTSZ01   
 5 11009     01421        17 QTSZ01   
 6 11009     01421        17 QTSZ01   
 7 11009     01511        19 QTSZ01   
 8 11009     01511        19 QTSZ01   
 9 11009     01521         2 QTSZ01   
10 11009     01521         2 QTSZ01   
# ℹ 1,176 more rows
…
Next, we will update od_data data frame cwith the planning subzone codes.

Code

od_data <- left_join(od_data , busstop_mpsz,
            by = c("DESTIN_BS" = "BUS_STOP_N")) 

Code

od_data %>%
  group_by_all() %>%
  filter(n()>1) %>%
  ungroup()

# A tibble: 1,350 × 5
   ORIGIN_BS DESTIN_BS TRIPS ORIGIN_SZ SUBZONE_C
   <chr>     <chr>     <dbl> <chr>     <chr>    
 1 01013     51071         2 RCSZ10    CCSZ01   
 2 01013     51071         2 RCSZ10    CCSZ01   
 3 01112     51071        66 RCSZ10    CCSZ01   
 4 01112     51071        66 RCSZ10    CCSZ01   
 5 01112     53041         4 RCSZ10    BSSZ01   
 6 01112     53041         4 RCSZ10    BSSZ01   
 7 01121     51071         8 RCSZ04    CCSZ01   
 8 01121     51071         8 RCSZ04    CCSZ01   
 9 01121     82221         1 RCSZ04    GLSZ05   
10 01121     82221         1 RCSZ04    GLSZ05   
# ℹ 1,340 more rows
…
